{
    "iklantAccessType" : "iklant_access_type",
    "iklantChoices" : "iklant_choices",
    "iklantClientAssessment" : "iklant_client_assessment",
    "iklantClientDoc" : "iklant_client_doc",
    "iklantClientRating" : "iklant_client_rating",
    "iklantDocType" : "iklant_doc_type",
    "iklantEntity" : "iklant_entity",
    "iklantEntityOperation" : "iklant_entity_operation",
    "iklantFieldVerification" : "iklant_field_verification",
    "iklantGroupDoc" : "iklant_group_doc",
    "iklantMifosMapping" : "iklant_mifos_mapping",
    "iklantLoanType" : "iklant_loan_type",
    "iklantLookupEntity" : "iklant_lookup_entity",
    "iklantLookupValue" : "iklant_lookup_value",
    "iklantMeeting" : "iklant_meeting",
    "iklantMeetingType" : "iklant_meeting_type",
    "iklantOffice" : "iklant_office",
    "iklantOperation" : "iklant_operation",
    "iklantOperationStatus" : "iklant_operation_status",
    "iklantPreliminaryVerification" : "iklant_preliminary_verification",
    "iklantProspectClient" : "iklant_prospect_client",
    "iklantprospectClientBankDetail" : "iklant_prospect_client_bank_detail",
    "iklantProspectClientDataEntryTracking" : "iklant_prospect_client_data_entry_tracking",
    "iklantProspectClientFamilyDetail" : "iklant_prospect_client_family_detail",
    "iklantProspectClientGuarantor": "iklant_prospect_client_guarantor",
    "iklantProspectClientHouseDetail" : "iklant_prospect_client_house_detail",
    "iklantProspectClientOtherDetail" : "iklant_prospect_client_other_detail",
    "iklantProspectClientOtherMfiDetail" : "iklant_prospect_client_other_mfi_detail",
    "iklantProspectClientPersonal" : "iklant_prospect_client_personal",
    "iklantProspectGroup" : "iklant_prospect_group",
    "iklantProspectGroupMeeting" : "iklant_prospect_group_meeting",
    "iklantProspectStatus" : "iklant_prospect_status",
    "iklantQuestions" : "iklant_questions",
    "iklantRecurOnDay" : "iklant_recur_on_day",
    "iklantRecurrenceDetail" : "iklant_recurrence_detail",
    "iklantRecurrenceType" : "iklant_recurrence_type",
    "iklantRole" : "iklant_role",
    "iklantRoleOperation" : "iklant_role_operation",
    "iklantRolePrevilege" : "iklant_role_previlege",
    "iklantRoleStatus" : "iklant_role_status",
    "iklantTenant" : "iklant_tenant",
    "iklantUserRole" : "iklant_user_role",
    "iklantUsers" : "iklant_users",
    "iklantGCMUsers" : "iklant_user_gcmdetails",
    "iklantBCDetails" : "iklant_bc_customer_details",
    "iklantPaymentHistory" : "iklant_customer_payment_history",
    "iklantAreaCode":"iklant_area_code",
    "iklantAreaQuestionResponse":"iklant_area_questions_response",
    "iklantAreaQuestions":"iklant_area_questions",
    "iklantQuestionsInputType":"iklant_questions_input_type",
    "iklantRejectedClientStatus" : "iklant_rejected_client_status",
    "iklantAreaTracking" : "iklant_area_tracking",
    "iklantGrtCategories" : "iklant_grt_categories",
    "iklantGrtCheckPts" : "iklant_grt_check_pts",
    "iklantGrtGroupRatings" : "iklant_grt_group_ratings",
    "iklantGrtGroupRemarks" : "iklant_grt_group_remarks",
    "iklantLoanUtilizationCheck" : "iklant_loan_utilization_check",
    "iklantMenuLevels":"iklant_menu_levels",
    "iklantMenuRoleMapping":"iklant_menu_role_mapping",
    "mfiPersonnelRole":"personnel_role",
    "iklantLDCallTracking":"ld_call_tracking",
    "iklantParentCallTracking":"parent_call_tracking",
    "iklantChildCallTracking":"child_call_tracking",
    "iklantCallTrackingLog":"call_tracking_log",
    "iklantProspectClientPreviousContact":"iklant_prospect_client_previous_contact",
    "iklantFoHoldImageTrack":"iklant_fo_hold_image_track",
    "iklantAuditing":"iklant_auditing",
    "iklantStateList":"iklant_state_list",
    "iklantBoGroupDetails":"iklant_bo_group_details",
    "iklantAadhaarDetails":"iklant_aadhaar_details",
    "iklantBanks":"banks",
    "iklantBankDetails":"bank_details",
    "iklantWorkflowType":"iklant_workflow_type",
    "iklantFOCollectionDetails":"fo_collection_details",
    "iklantFORemarks":"iklant_fo_remarks",
    "iklantQuestionDocs":"iklant_question_docs",
    "smsManagement": "sms_management",
    "smsLog": "sms_log",
    "connectionLimit" : 60,
    "host" : "localhost",
    "username" : "root",
    "password" : "root",
    "database" : "msm_demo",
    "mifosServiceIp" : "localhost",
    "mifosPort" : 8090,
    "GPSPort" : 80,
    "microFinanceGlcode" : 1030101,
    "microFinanceInterestGlcode": 3010101,
    "iklantPort" : 3000,
    "contextPath" : "/npa",
    "logPath" : "logs",
    "reportsPath" : "/documents/report_documents",
    "creditReportsPath" : "/public/credit_reports",
    "emailId" : "mfi.android@ionixxtech.com",
    "emailPassword" : "mfiteam@321",
    "emailFromText" : "MSM<no-reply@ionixxtech.com>",
    "emailSubject" : "User Credentials",
    "emailText" : "Please click the below link and use the following credentials,User Name : 1, Password : 2, and please change the password after login ",
    "notificationRestrictionforDeviation" : "1,2,3,4",
    "ipAddress" : "localhost",
    "accessType" : 0,
    "loacalMachineIP" : "192.168.1.70:8080",
    "businessCategoryEntityId" : "50,51,52,53,54,55",
    "iklantSubDocType" : "iklant_subdoc_type",
    "tenantCompanyName":"MSM MICROFINANCE LIMITED",
    "tenantCorpAddress1":"Corp. Off: NO.113 RAJA STREET,DR.SEETHAPATHY NAGER",
    "tenantCorpAddress2":"VELACHERY,CHENNAI - 600 041",
    "tenantShortName":"MSM",
    "tenantCompanyFKAName":"(Formerly known as APEX ABISHEK FINANCE LIMITED)",
    "tenantBcCompanyName":"Ananya Finance For Inclusive Growth Private Limited",
    "tenantBcCompanyRName":"(Represented by MSM MICROFINANCE LIMITED)",
    "tenantBcCompanyRName":"",
    "headOfficeLeveId" : 1,
    "regionalOfficeLeveId" : 2,
    "divisionalOfficeLeveId" : 3,
    "areaOfficeLeveId" : 4,
    "branchOfficeLeveId" : 5,
    "regionalOfficeLevelApplicable" : false,
    "divsionalOfficeLevelApplicable" : false,
    "areaOfficeLevelApplicable" : false,
    "groupByColumnForHeadOfficeLevel" : "regional_office_id",
    "groupByColumnForRegionalOfficeLevel" : "divisional_office_id",
    "groupByColumnForDivisionalOfficeLevel" : "area_office_id",
    "groupByColumnForAreaOfficeLevel" : "branch_office_id",
    "roleAccessTableEnabled" : false,
    "isGeneric":false,
    "isFamilyIncomeMandatory":true,
    "isLSLApplicable":true,
    "isBankDetailsApplicable":true,
    "updateLSLOnDB":false,
    "traningDaysCount":2,
    "isCBAApplicable":true,
    "isCGTApplicable":false,
    "isFVApplicable":true,
    "smsCompanyName":"",
    "openSSLApplicable":false,
    "applicationURI":"https://localhost:2000/*",
    "emailSignature":"Thanks,",
    "isAdjustmentApplicableOnlyBeforeDayBookClosure" : true,
    "IS_RM_REGIONAL_OFFICE_TABLE_REQUIRED" : false,
    "legalDocsId":[1,2,3,4,5,6,7,8,9,10,11],
    "legalDocs":["KYC Form","Loan Sanction Form","Legal Form","Promissory Note","Installment Schedule","Receipt Form","MAS Loan Agreement Form","MAS Loan Card Form","MAS Demand Promissory Note Form","MAS Credit Appraisal Form","Tax Invoice"],
    "legalDocsIdLS":[1,2,3,4,5,6,11],
    "legalDocsForLS":["KYC Form","Loan Sanction Form","Legal Form","Promissory Note","Installment Schedule","Receipt Form","Tax Invoice"],
    "entityIdsForAndroidSync":"1,2,3,4,5,6,7,11,12,13,14,15,16,50,51,52,53,54,55,77,78",
    "forContact":"For any customer Complaints/Grievances please contact Mr. Zabiullah (HR)- +919381022345/MFIN Toll Free Num.- 18002700317",
    "advancedAreaManagement":false,
    "rescheduleEnabled":false,
    "isRMApprovalRequiredForReinitiate":true,
    "isActiveGroupsRestrictApplicable":false,
    "isLoanAmountUpdationApplicableInAppraisal":true,
    "isLoanAmountUpdationApplicableInAuthorization":true,
    "isCenterNameApplicable" :false,
    "isBCShortNameApplicableForCenterCode":false,
    "isOccupationLookupApplicable":false,
    "isAreaGradeApplicable":false,
    "imageVerificationApplicable":true,
    "isNextLoanAuthorization":true,
    "isNextLoanSanction":true,
    "isNextGRT":true,
    "regionalOfficeLevelApplicableForDayBook" : true,
    "tenantPrefixForNPA":"ramjay_"
}
